<?xml version="1.0" encoding="UTF-8"?>
<svg width="22px" height="40px" viewBox="0 0 22 40" version="1.1" xmlns="http://www.w3.org/2000/svg" xmlns:xlink="http://www.w3.org/1999/xlink">
    <!-- Generator: Sketch 51.3 (57544) - http://www.bohemiancoding.com/sketch -->
    <title>Path 7</title>
    <desc>Created with Sketch.</desc>
    <defs></defs>
    <g id="UI-interim" stroke="none" stroke-width="1" fill="none" fill-rule="evenodd" stroke-linecap="round" stroke-linejoin="round">
        <g id="ver2-3" transform="translate(-1394.000000, -549.000000)" fill-rule="nonzero" stroke="#EC6B06" stroke-width="3">
            <g id="navigation" transform="translate(1304.000000, 288.000000)">
                <g id="next" transform="translate(70.000000, 250.000000)">
                    <polyline id="Path-7" transform="translate(31.000000, 30.803279) scale(-1, 1) translate(-31.000000, -30.803279) " points="40 13 22 30.8032787 40 48.6065574"></polyline>
                </g>
            </g>
        </g>
    </g>
</svg>