<?xml version="1.0" encoding="UTF-8"?>
<svg width="20px" height="20px" viewBox="0 0 20 20" version="1.1" xmlns="http://www.w3.org/2000/svg" xmlns:xlink="http://www.w3.org/1999/xlink">
    <!-- Generator: Sketch 52.6 (67491) - http://www.bohemiancoding.com/sketch -->
    <title>icon-close-small</title>
    <desc>Created with Sketch.</desc>
    <g id="Symbols" stroke="none" stroke-width="1" fill="none" fill-rule="evenodd">
        <g id="icon-close-small" fill="#EC6B06" fill-rule="nonzero">
            <path d="M1.7251354,19.7251354 C0.782326354,20.6679444 -0.631887208,19.2537309 0.310921833,18.3109218 L9.31092183,9.31092183 C9.70144612,8.92039754 10.3346111,8.92039754 10.7251354,9.31092183 L19.7251354,18.3109218 C20.6679444,19.2537309 19.2537309,20.6679444 18.3109218,19.7251354 L10.0180286,11.4322422 L1.7251354,19.7251354 Z M10.0180286,8.60381505 L18.3109218,0.310921833 C19.2537309,-0.631887208 20.6679444,0.782326354 19.7251354,1.7251354 L10.7251354,10.7251354 C10.3346111,11.1156597 9.70144612,11.1156597 9.31092183,10.7251354 L0.310921833,1.7251354 C-0.631887208,0.782326354 0.782326354,-0.631887208 1.7251354,0.310921833 L10.0180286,8.60381505 Z"></path>
        </g>
    </g>
</svg>