<?xml version="1.0" encoding="utf-8"?>
<!-- Generator: Adobe Illustrator 23.0.0, SVG Export Plug-In . SVG Version: 6.00 Build 0)  -->
<svg version="1.1" id="Layer_1" xmlns="http://www.w3.org/2000/svg" xmlns:xlink="http://www.w3.org/1999/xlink" x="0px" y="0px"
	 width="25px" height="22px" viewBox="0 0 25 22" enable-background="new 0 0 25 22" xml:space="preserve">
<g>
	<path d="M21,13h-8c-0.552,0-1,0.448-1,1s0.448,1,1,1h8c0.552,0,1-0.448,1-1S21.552,13,21,13z"/>
	<path d="M17,19h-4c-0.552,0-1,0.448-1,1s0.448,1,1,1h4c0.552,0,1-0.448,1-1S17.552,19,17,19z"/>
	<path d="M4,17c0.552,0,1-0.448,1-1V2c0-0.552-0.448-1-1-1S3,1.448,3,2v14C3,16.552,3.448,17,4,17z"/>
	<path d="M6.121,17.05L4,19.172L1.879,17.05c-0.391-0.391-1.024-0.391-1.414,0c-0.391,0.391-0.391,1.024,0,1.414l2.828,2.828
		c0.391,0.391,1.024,0.391,1.414,0l2.828-2.828c0.391-0.391,0.391-1.024,0-1.414C7.145,16.66,6.512,16.66,6.121,17.05z"/>
</g>
<g>
	<path d="M14.54,6.282h-1.044V9H12V1h2.504c0.902,0,1.624,0.245,2.166,0.736c0.542,0.491,0.813,1.12,0.813,1.887
		c0,0.815-0.279,1.462-0.837,1.941C16.089,6.043,15.386,6.282,14.54,6.282z M14.374,2.223h-0.878v2.849h0.843
		c0.546,0,0.953-0.131,1.222-0.392c0.269-0.261,0.404-0.613,0.404-1.057c0-0.435-0.135-0.777-0.404-1.027
		C15.292,2.348,14.896,2.223,14.374,2.223z"/>
	<path d="M22.162,9h-1.709L17.77,1h1.626l0.985,3.181c0.198,0.633,0.375,1.238,0.534,1.816c0.158,0.578,0.269,0.997,0.332,1.258
		l0.083,0.391c0.19-0.886,0.51-2.041,0.962-3.466L23.289,1h1.602L22.162,9z"/>
</g>
</svg>
