<?xml version="1.0" encoding="UTF-8"?>
<svg width="322px" height="122px" viewBox="0 0 322 122" version="1.1" xmlns="http://www.w3.org/2000/svg" xmlns:xlink="http://www.w3.org/1999/xlink">
    <!-- Generator: Sketch 52.6 (67491) - http://www.bohemiancoding.com/sketch -->
    <title>icons/team/core-team</title>
    <desc>Created with Sketch.</desc>
    <g id="icons/team/core-team" stroke="none" stroke-width="1" fill="none" fill-rule="evenodd">
        <path d="M81.157578,92.6508338 L77.5194686,121.997682 L69.4872892,121.997682 L65.8470557,92.6337001 L65.801815,92.6393086 L61.2271961,79.3861005 L60.0035238,57.2101546 C59.8140677,53.7767451 62.1464375,50.7141543 65.5066722,49.9840742 L69.4276727,49.1321562 C70.8839678,48.8157462 72.3315136,49.0636208 73.5423933,49.729225 C74.7509114,49.0617148 76.1977058,48.8134812 77.6523106,49.1321562 L81.5051416,49.9762349 C84.8596394,50.7111388 87.1856804,53.7708983 86.9964765,57.1997379 L85.7722294,79.3861005 L81.1921528,92.65512 L81.157578,92.6508338 Z M73,42.9976816 C69.1340068,42.9976816 66,39.8636749 66,35.9976816 C66,32.1316884 69.1340068,28.9976816 73,28.9976816 C76.8659932,28.9976816 80,32.1316884 80,35.9976816 C80,39.8636749 76.8659932,42.9976816 73,42.9976816 Z" id="man-orange" fill="currentColor"></path>
        <path d="M32.5689121,103.523812 L27.9999997,91.3281355 L27.0116382,71.0916385 C26.8130325,67.6315273 29.1763215,64.547005 32.5689121,63.8383845 L36.138057,63.0928866 C37.4515826,62.8185266 38.7539664,63.0174552 39.8680104,63.5737079 C40.9802932,63.0157253 42.2822123,62.8164949 43.5945352,63.0928866 L47.0974408,63.8306427 C50.4845174,64.5440036 52.8416511,67.6258073 52.6432989,71.0815023 L51.480514,91.3395572 L47.1057813,103.523812 L44.9999997,121.997682 L35.1224668,122 L32.5689121,103.523812 Z M40.0931378,57.8333333 C36.4970391,57.8333333 33.5818251,54.9604938 33.5818251,51.4166667 C33.5818251,47.8728395 36.4970391,45 40.0931378,45 C43.6892365,45 46.6044506,47.8728395 46.6044506,51.4166667 C46.6044506,54.9604938 43.6892365,57.8333333 40.0931378,57.8333333 Z" id="ma-left" fill="#000000" fill-rule="nonzero" transform="translate(39.827468, 83.500000) scale(-1, 1) translate(-39.827468, -83.500000) "></path>
        <path d="M99.5689121,103.523812 L94.9999997,91.3281355 L94.0116382,71.0916385 C93.8130325,67.6315273 96.1763215,64.547005 99.5689121,63.8383845 L103.138057,63.0928866 C104.451583,62.8185266 105.753966,63.0174552 106.86801,63.5737079 C107.980293,63.0157253 109.282212,62.8164949 110.594535,63.0928866 L114.097441,63.8306427 C117.484517,64.5440036 119.841651,67.6258073 119.643299,71.0815023 L118.480514,91.3395572 L114.105781,103.523812 L112,121.997682 L102.122467,122 L99.5689121,103.523812 Z M107.093138,57.8333333 C103.497039,57.8333333 100.581825,54.9604938 100.581825,51.4166667 C100.581825,47.8728395 103.497039,45 107.093138,45 C110.689237,45 113.604451,47.8728395 113.604451,51.4166667 C113.604451,54.9604938 110.689237,57.8333333 107.093138,57.8333333 Z" id="man-right" fill="#000000" fill-rule="nonzero" transform="translate(106.827468, 83.500000) scale(-1, 1) translate(-106.827468, -83.500000) "></path>
    </g>
</svg>
