<?xml version="1.0" encoding="UTF-8"?>
<svg width="322px" height="177px" viewBox="0 0 322 177" version="1.1" xmlns="http://www.w3.org/2000/svg" xmlns:xlink="http://www.w3.org/1999/xlink">
    <!-- Generator: Sketch 52.6 (67491) - http://www.bohemiancoding.com/sketch -->
    <title>icons/cases/pv</title>
    <desc>Created with Sketch.</desc>
    <g id="icons/cases/pv" stroke="none" stroke-width="1" fill="none" fill-rule="evenodd">
        <path d="M57.938,102.624 L41.732,102.624 L41.732,140 L32.68,140 L32.68,41.596 L56.332,41.596 C67.8173908,41.596 76.8449672,44.4916377 83.415,50.283 C89.9850328,56.0743623 93.27,63.6906195 93.27,73.132 C93.27,81.3080409 90.0823652,88.2673046 83.707,94.01 C77.3316348,99.7526954 68.742054,102.624 57.938,102.624 Z M57.354,49.626 L41.732,49.626 L41.732,94.594 L58.96,94.594 C66.6493718,94.594 72.7569774,92.5500204 77.283,88.462 C81.8090226,84.3739796 84.072,79.2640307 84.072,73.132 C84.072,65.9292973 81.7360234,60.2110212 77.064,55.977 C72.3919766,51.7429788 65.8220423,49.626 57.354,49.626 Z M151.524,140 L139.114,140 L105.68,41.596 L115.462,41.596 L128.456,80.578 L145.392,131.97 L162.912,80.578 L176.344,41.596 L186.126,41.596 L151.524,140 Z" id="PV" fill="#000000"></path>
    </g>
</svg>